<?xml version="1.0" encoding="UTF-8" standalone="no"?>
<!-- Created with Inkscape (http://www.inkscape.org/) -->

<svg
   xmlns:dc="http://purl.org/dc/elements/1.1/"
   xmlns:cc="http://creativecommons.org/ns#"
   xmlns:rdf="http://www.w3.org/1999/02/22-rdf-syntax-ns#"
   xmlns:svg="http://www.w3.org/2000/svg"
   xmlns="http://www.w3.org/2000/svg"
   xmlns:sodipodi="http://sodipodi.sourceforge.net/DTD/sodipodi-0.dtd"
   xmlns:inkscape="http://www.inkscape.org/namespaces/inkscape"
   width="113.40704mm"
   height="30.43535mm"
   viewBox="0 0 113.40704 30.43535"
   version="1.1"
   id="svg8"
   inkscape:version="0.92.3 (2405546, 2018-03-11)"
   sodipodi:docname="logo.svg">
  <defs
     id="defs2" />
  <sodipodi:namedview
     id="base"
     pagecolor="#ffffff"
     bordercolor="#666666"
     borderopacity="1.0"
     inkscape:pageopacity="0.0"
     inkscape:pageshadow="2"
     inkscape:zoom="1.4"
     inkscape:cx="221.69677"
     inkscape:cy="83.684529"
     inkscape:document-units="mm"
     inkscape:current-layer="layer1"
     showgrid="false"
     fit-margin-top="0"
     fit-margin-left="0"
     fit-margin-right="0"
     fit-margin-bottom="0"
     inkscape:window-width="1366"
     inkscape:window-height="670"
     inkscape:window-x="0"
     inkscape:window-y="27"
     inkscape:window-maximized="1" />
  <metadata
     id="metadata5">
    <rdf:RDF>
      <cc:Work
         rdf:about="">
        <dc:format>image/svg+xml</dc:format>
        <dc:type
           rdf:resource="http://purl.org/dc/dcmitype/StillImage" />
        <dc:title></dc:title>
      </cc:Work>
    </rdf:RDF>
  </metadata>
  <g
     inkscape:label="Camada 1"
     inkscape:groupmode="layer"
     id="layer1"
     transform="translate(-40.181905,-89.780944)">
    <g
       aria-label="SCAP"
       style="font-style:normal;font-weight:normal;font-size:10.58333302px;line-height:1.25;font-family:sans-serif;letter-spacing:0px;word-spacing:0px;fill:#ffffff;fill-opacity:1;stroke:none;stroke-width:0.26458332"
       id="text817">
      <path
         d="M 65.581904,96.304576 H 49.458858 q -1.091407,0 -1.736329,0.84336 -0.620117,0.818555 -0.620117,1.934765 0,1.091409 0.595313,1.860349 0.620117,0.76895 1.761133,0.76895 h 9.500195 q 3.844726,0 6.077148,2.87734 2.00918,2.57969 2.00918,6.37481 0,3.77031 -2.00918,6.3748 -2.232422,2.87734 -6.077148,2.87734 H 41.670186 v -6.44921 h 16.197461 q 1.041796,0 1.637109,-0.84336 0.595312,-0.86817 0.595312,-1.98438 0,-1.11621 -0.570507,-1.88515 -0.570508,-0.79375 -1.661914,-0.79375 h -9.525 q -3.869532,0 -6.126758,-2.85254 -2.033984,-2.55489 -2.033984,-6.325199 0,-3.720703 2.033984,-6.30039 2.282031,-2.877344 6.126758,-2.877344 h 17.239257 z"
         style="font-style:normal;font-variant:normal;font-weight:normal;font-stretch:normal;font-size:50.79999924px;font-family:Nasa;-inkscape-font-specification:Nasa;stroke-width:0.26458332;fill:#ffffff"
         id="path838" />
      <path
         d="M 93.859248,120.21629 H 79.05085 q -5.333008,0 -8.433594,-4.63847 -2.778125,-4.16719 -2.778125,-10.26914 0,-6.201174 2.827734,-10.566799 3.125391,-4.836914 8.383985,-4.836914 h 14.808398 v 6.399609 H 80.167061 q -2.480469,0 -3.894336,2.629297 -1.265039,2.356447 -1.265039,5.829097 0,3.57188 1.314648,6.10196 1.438672,2.77812 3.844727,2.77812 h 13.692187 z"
         style="font-style:normal;font-variant:normal;font-weight:normal;font-stretch:normal;font-size:50.79999924px;font-family:Nasa;-inkscape-font-specification:Nasa;stroke-width:0.26458332;fill:#ffffff"
         id="path840" />
      <path
         d="m 126.52702,120.21629 h -7.16855 l -7.9127,-23.316401 q -0.0744,-0.37207 -0.5209,-0.37207 -0.42168,0 -0.62011,0.37207 l -7.73907,23.316401 h -7.26777 q 0.620117,-2.158 2.654102,-8.58242 2.058788,-6.42441 3.993558,-12.154294 2.158,-6.374804 2.62929,-7.09414 0.89297,-1.265039 2.6045,-1.934766 1.71152,-0.669726 3.7207,-0.669726 2.00918,0 3.6959,0.669726 1.71152,0.669727 2.60449,1.934766 0.5457,0.744141 2.67891,7.044531 1.31464,3.869533 3.91914,12.154293 1.5875,5.03536 2.72851,8.63203 z"
         style="font-style:normal;font-variant:normal;font-weight:normal;font-stretch:normal;font-size:50.79999924px;font-family:Nasa;-inkscape-font-specification:Nasa;stroke-width:0.26458332;fill:#ffffff"
         id="path842" />
      <path
         d="m 145.42819,108.26044 h -6.44921 q -2.48047,0 -3.54707,1.66191 -0.71934,1.14102 -0.71934,2.85254 0,0.62012 0,0.74414 0.0248,0.12402 0.0744,0.24805 v 6.44921 h -6.59804 q 0,-0.74414 0,-2.05878 0,-1.31465 0,-3.44786 0,-2.1332 0,-4.53925 0,-3.62149 1.78593,-5.85391 2.0836,-2.60449 6.12676,-2.60449 h 8.21035 q 1.14102,0 1.76114,-0.76895 0.62011,-0.79375 0.62011,-1.860349 0,-1.141015 -0.59531,-1.90996 -0.66973,-0.868165 -1.78594,-0.868165 h -16.12304 v -6.399609 h 17.23925 q 3.86954,0 6.12676,2.852539 2.03399,2.579688 2.03399,6.325195 0,3.720699 -2.03399,6.300389 -2.25722,2.87735 -6.12676,2.87735 z"
         style="font-style:normal;font-variant:normal;font-weight:normal;font-stretch:normal;font-size:50.79999924px;font-family:Nasa;-inkscape-font-specification:Nasa;stroke-width:0.26458332;fill:#ffffff"
         id="path844" />
    </g>
  </g>
</svg>
